{
"count": 45358,
"page": 1,
"page_count": 24,
"page_size": 24,
"products": [
{
"id": "3229820129488",
"image_front_small_url": "https://images.openfoodfacts.org/images/products/322/982/012/9488/front_fr.191.200.jpg",
"product_name": "Muesli Raisin, Figue, Abricot"
},
{
"id": "3228857000166",
"image_front_small_url": "https://images.openfoodfacts.org/images/products/322/885/700/0166/front_fr.158.200.jpg",
"product_name": "100% mie complet"
},
{
"id": "7613034626844",
"image_front_small_url": "https://images.openfoodfacts.org/images/products/761/303/462/6844/front_en.268.200.jpg",
"product_name": "Céréales chocapic"
},
{
"id": "7300400481588",
"image_front_small_url": "https://images.openfoodfacts.org/images/products/730/040/048/1588/front_fr.178.200.jpg",
"product_name": "Tartine croustillante FIBRES"
},
{
"id": "3175681851849",
"image_front_small_url": "https://images.openfoodfacts.org/images/products/317/568/185/1849/front_fr.179.200.jpg",
"product_name": "Pomme noisette"
},
{
"id": "3256540000698",
"image_front_small_url": "https://images.openfoodfacts.org/images/products/325/654/000/0698/front_fr.126.200.jpg",
"product_name": "Pains au lait"
},
{
"id": "3392460480827",
"image_front_small_url": "https://images.openfoodfacts.org/images/products/339/246/048/0827/front_en.72.200.jpg",
"product_name": "Biscottes heudebert"
},
{
"id": "3029330022428",
"image_front_small_url": "https://images.openfoodfacts.org/images/products/302/933/002/2428/front_en.118.200.jpg",
"product_name": "Pain de mie complet sans sucres ajoutés"
},
{
"id": "3228857000906",
"image_front_small_url": "https://images.openfoodfacts.org/images/products/322/885/700/0906/front_fr.163.200.jpg",
"product_name": "Harrys pain de mie american sandwich complet 600g"
},
{
"id": "3175680015228",
"image_front_small_url": "https://images.openfoodfacts.org/images/products/317/568/001/5228/front_fr.201.200.jpg",
"product_name": "Levure de bière à saupoudrer"
},
{
"id": "3229820782560",
"image_front_small_url": "https://images.openfoodfacts.org/images/products/322/982/078/2560/front_fr.131.200.jpg",
"product_name": "Muesli Superfruits"
},
{
"id": "8000500329474",
"image_front_small_url": "https://images.openfoodfacts.org/images/products/800/050/032/9474/front_en.81.200.jpg",
"product_name": "Biscuits Kinder CereAlé chocolat noir 2x6 - 204g"
},
{
"id": "5050083516313",
"image_front_small_url": "https://images.openfoodfacts.org/images/products/505/008/351/6313/front_fr.111.200.jpg",
"product_name": "Céréales Extra Kellogg's Pépites Chocolat au lait"
},
{
"id": "5010029220773",
"image_front_small_url": "https://images.openfoodfacts.org/images/products/501/002/922/0773/front_en.128.200.jpg",
"product_name": "Weetabix"
},
{
"id": "4056489007180",
"image_front_small_url": "https://images.openfoodfacts.org/images/products/405/648/900/7180/front_en.115.200.jpg",
"product_name": "Pain de Mie Spécial Sandwich Complet"
},
{
"id": "3041090063206",
"image_front_small_url": "https://images.openfoodfacts.org/images/products/304/109/006/3206/front_fr.132.200.jpg",
"product_name": "Cracotte Céréales Complètes"
},
{
"id": "3284230011884",
"image_front_small_url": "https://images.openfoodfacts.org/images/products/328/423/001/1884/front_fr.109.200.jpg",
"product_name": "8 Pains au lait"
},
{
"id": "3228857000883",
"image_front_small_url": "https://images.openfoodfacts.org/images/products/322/885/700/0883/front_fr.88.200.jpg",
"product_name": "Harrys pain de mie extra moelleux nature sans sucres ajoutés 500g"
},
{
"id": "7300400481571",
"image_front_small_url": "https://images.openfoodfacts.org/images/products/730/040/048/1571/front_fr.129.200.jpg",
"product_name": "Tartine croustillante léger"
},
{
"id": "7613036669146",
"image_front_small_url": "https://images.openfoodfacts.org/images/products/761/303/666/9146/front_fr.160.200.jpg",
"product_name": "NESTLE CHOCAPIC BIO Céréales 375g"
},
{
"id": "3017760363990",
"image_front_small_url": "https://images.openfoodfacts.org/images/products/301/776/036/3990/front_fr.108.200.jpg",
"product_name": "Biscotte Fibres+"
},
{
"id": "3175681209282",
"image_front_small_url": "https://images.openfoodfacts.org/images/products/317/568/120/9282/front_fr.62.200.jpg",
"product_name": "Biscuits aux pommes"
},
{
"id": "3228857001194",
"image_front_small_url": "https://images.openfoodfacts.org/images/products/322/885/700/1194/front_fr.41.200.jpg",
"product_name": "Harrys beau & bon pain de mie farine de ble cereales & graines 320g"
},
{
"id": "7311070032611",
"image_front_small_url": "https://images.openfoodfacts.org/images/products/731/107/003/2611/front_fr.62.200.jpg",
"product_name": "Krisprolls"
}
],
"skip": 0
}